{
  "page": 17,
  "pageSize": 18,
  "totalPages": 23,
  "totalItems": 400,
  "items": [
    {
      "id": "ebay-013300612",
      "title": "Next-Level LEGO Botanicals Tiny Plants - Artificial, Fake Indoor Plant Building Set for Home, Kitchen, Desk Decoration, Adults Ages 18+ - Gift for Birthdays - 10329 – Fan-Favorite Upgrade",
      "url": "https://www.ebay.com/itm/lego-botanicals-tiny-plants-artificial-fake-indoor-plant-bui?mkevt=1&mkcid=1&mkrid=711-53200-19255-0&campid=BESTGIFTS&customid=013300612",
      "image": "/assets/amazon-sitestripe/amzn-3IoJ99k.svg",
      "price": "$39.95",
      "category": "For Adventurers"
    },
    {
      "id": "ebay-031301512",
      "title": "Next-Level LEGO Roses - Building Toy for Kids, Girls & Boys, Ages 8+ - Artificial, Fake Roses for Home Decor & Display - Gift Idea for Plant & Flower Lovers - 40460 – Holiday Hero",
      "url": "https://www.ebay.com/itm/lego-roses-building-toy-for-kids-girls-boys-ages-8-artificia?mkevt=1&mkcid=1&mkrid=711-53200-19255-0&campid=BESTGIFTS&customid=031301512",
      "image": "/assets/amazon-sitestripe/amzn-3K8wkR2.svg",
      "price": "$8.99",
      "category": "Homebody Upgrades"
    },
    {
      "id": "ebay-017300812",
      "title": "Next-Level Nostalgia 2 Slot Hot Dog and Bun Toaster with Mini Tongs, Retro Toaster, Cooker that Works Chicken, Turkey, Veggie Links, Sausages Brats, Metallic Red – eBay Exclusive",
      "url": "https://www.ebay.com/itm/nostalgia-2-slot-hot-dog-and-bun-toaster-with-mini-tongs-ret?mkevt=1&mkcid=1&mkrid=711-53200-19255-0&campid=BESTGIFTS&customid=017300812",
      "image": "/assets/amazon-sitestripe/amzn-3Ir5rHt.svg",
      "price": "$32.99",
      "category": "Productivity Power-Ups"
    },
    {
      "id": "ebay-003300112",
      "title": "Next-Level Prank-O Original Gift Box, Wrap Your Real Present in a Funny Authentic Prank-O Gag Present Box, Novelty Gifting for Pranksters, Shark Tank (Roto Wipe) – Fast Shipping Pick",
      "url": "https://www.ebay.com/itm/prank-o-original-gift-box-wrap-your-real-present-in-a-funny-?mkevt=1&mkcid=1&mkrid=711-53200-19255-0&campid=BESTGIFTS&customid=003300112",
      "image": "/assets/amazon-sitestripe/amzn-3I2aKND.svg",
      "price": "$9.99",
      "category": "For Her"
    },
    {
      "id": "ebay-037301812",
      "title": "Next-Level Ridley’s 100 Single Cheesy Joke Cards – Includes 100 Jokes for Kids and Adults, Funny Jokes for Family-Friendly Fun – Makes a Great Gift Idea – eBay Exclusive",
      "url": "https://www.ebay.com/itm/ridley-s-100-single-cheesy-joke-cards-includes-100-jokes-for?mkevt=1&mkcid=1&mkrid=711-53200-19255-0&campid=BESTGIFTS&customid=037301812",
      "image": "/assets/amazon-sitestripe/amzn-3VPEmRo.svg",
      "price": "$8.00",
      "category": "Productivity Power-Ups"
    },
    {
      "id": "ebay-001300012",
      "title": "Next-Level Rolling Grill Basket, Removable Wooden Handle, 304 Stainless Steel, Nesting Grilling Tools, Smoker BBQ Accessories for Vegetable, Outdoor Cooking Camping, Birthday Gifts for Men Dad Husband – Gift-Ready Listing",
      "url": "https://www.ebay.com/itm/rolling-grill-basket-removable-wooden-handle-304-stainless-s?mkevt=1&mkcid=1&mkrid=711-53200-19255-0&campid=BESTGIFTS&customid=001300012",
      "image": "/assets/amazon-sitestripe/amzn-3I1wmJZ.svg",
      "price": "$23.99",
      "category": "For Him"
    },
    {
      "id": "ebay-039301912",
      "title": "Next-Level Schylling NeeDoh Original - Sensory Fidget Toy - Assorted Colors - Ages 3 to Adult , 1 Count ( Pack of 1) – Rare Marketplace Find",
      "url": "https://www.ebay.com/itm/schylling-needoh-original-sensory-fidget-toy-assorted-colors?mkevt=1&mkcid=1&mkrid=711-53200-19255-0&campid=BESTGIFTS&customid=039301912",
      "image": "/assets/amazon-sitestripe/amzn-3VQCjfR.svg",
      "price": "$3.99",
      "category": "Family Time"
    },
    {
      "id": "ebay-005300212",
      "title": "Next-Level SFOUR Astronaut Galaxy Projector Night Light，Lights for Bedroom,Kids Room Decor Aesthetic, Adjustable Head Angle,Gift for Kids Adults Home Party Ceiling Decor，Christmas Gift – Money-Back Guarantee",
      "url": "https://www.ebay.com/itm/sfour-astronaut-galaxy-projector-night-light-lights-for-bedr?mkevt=1&mkcid=1&mkrid=711-53200-19255-0&campid=BESTGIFTS&customid=005300212",
      "image": "/assets/amazon-sitestripe/amzn-3IbS6Tr.svg",
      "price": "$39.99",
      "category": "For a Techy"
    },
    {
      "id": "ebay-019300912",
      "title": "Next-Level Small Pocket Knife Gift for Men, Keychain Box Cutter with 1.34inch Blade, Mini Folding Knives EDC Gadgets for Everyday Carry, Stocking Stuffers Gift for Adults Men Him – Rare Marketplace Find",
      "url": "https://www.ebay.com/itm/small-pocket-knife-gift-for-men-keychain-box-cutter-with-1-3?mkevt=1&mkcid=1&mkrid=711-53200-19255-0&campid=BESTGIFTS&customid=019300912",
      "image": "/assets/amazon-sitestripe/amzn-3It90Np.svg",
      "price": "$7.98",
      "category": "Family Time"
    },
    {
      "id": "ebay-023301112",
      "title": "Next-Level Toilet Golf Game-Practice Mini Golf in Any Restroom/Bathroom - Great Toilet Time - Dad Gifts, Funny Gifts for Dad, Funny White Elephant Gifts, Gag Gifts for Husband, Boyfriend, Men – Fast Shipping Pick",
      "url": "https://www.ebay.com/itm/toilet-golf-game-practice-mini-golf-in-any-restroom-bathroom?mkevt=1&mkcid=1&mkrid=711-53200-19255-0&campid=BESTGIFTS&customid=023301112",
      "image": "/assets/amazon-sitestripe/amzn-3K47stH.svg",
      "price": "$15.99",
      "category": "For Her"
    },
    {
      "id": "ebay-021301012",
      "title": "Next-Level YATSKIA Chakra Crystal Tree - Handmade Healing Crystal Trees with 7 Chakra Stones - Decorative Tree of Life for Meditation, Feng Shui, and Home Decor - Unique Birthday Gifts for Women – Gift-Ready Listing",
      "url": "https://www.ebay.com/itm/yatskia-chakra-crystal-tree-handmade-healing-crystal-trees-w?mkevt=1&mkcid=1&mkrid=711-53200-19255-0&campid=BESTGIFTS&customid=021301012",
      "image": "/assets/amazon-sitestripe/amzn-3K3A32p.svg",
      "price": "$23.99",
      "category": "For Him"
    },
    {
      "id": "ebay-002600105",
      "title": "Prank-O Original Gift Box, Wrap Your Real Present in a Funny Authentic Prank-O Gag Present Box, Novelty Gifting for Pranksters, Shark Tank (Roto Wipe) – Bestseller Spotlight",
      "url": "https://www.ebay.com/itm/prank-o-original-gift-box-wrap-your-real-present-in-a-funny-?mkevt=1&mkcid=1&mkrid=711-53200-19255-0&campid=BESTGIFTS&customid=002600105",
      "image": "/assets/amazon-sitestripe/amzn-3I2aKND.svg",
      "price": "$9.99",
      "category": "For Her"
    },
    {
      "id": "ebay-015500714",
      "title": "Premium Bangp Baseball Ice Cube Molds,Novelty Baseball Gifts Ball Ice Maker Mold,2.2\" Large Sphere Round Ice Cube Mold,Fun Shapes Large Whiskey Ice Cube Tray for Cocktails,Bourbon – Rare Marketplace Find",
      "url": "https://www.ebay.com/itm/bangp-baseball-ice-cube-molds-novelty-baseball-gifts-ball-ic?mkevt=1&mkcid=1&mkrid=711-53200-19255-0&campid=BESTGIFTS&customid=015500714",
      "image": "/assets/amazon-sitestripe/amzn-3Ir56Vd.svg",
      "price": "$11.97",
      "category": "Wellness Warriors"
    },
    {
      "id": "ebay-033501614",
      "title": "Premium Chia Pet Hedgehog with Seed Pack, Decorative Pottery Planter, Easy to Do and Fun to Grow, Novelty Gift, Perfect for Any Occasion, Terra Cotta – eBay Exclusive",
      "url": "https://www.ebay.com/itm/chia-pet-hedgehog-with-seed-pack-decorative-pottery-planter-?mkevt=1&mkcid=1&mkrid=711-53200-19255-0&campid=BESTGIFTS&customid=033501614",
      "image": "/assets/amazon-sitestripe/amzn-3KaaegW.svg",
      "price": "$24.99",
      "category": "For Adventurers"
    },
    {
      "id": "ebay-035501714",
      "title": "Premium COLORLIFE Twister Hurricane Light- Novelty Nature Decor Gift for Boys Girls, Men, Women Mini Water Vortex Maker Mood Night Light Birthday Holiday Christmas – Rare Marketplace Find",
      "url": "https://www.ebay.com/itm/colorlife-twister-hurricane-light-novelty-nature-decor-gift-?mkevt=1&mkcid=1&mkrid=711-53200-19255-0&campid=BESTGIFTS&customid=035501714",
      "image": "/assets/amazon-sitestripe/amzn-3Kditc9.svg",
      "price": "$22.98",
      "category": "Wellness Warriors"
    },
    {
      "id": "ebay-027501314",
      "title": "Premium Doctor Pepper Candle - Smells Like The Real Soda - Cute Candles for Cool Gifts - Funny Candles for Any Occasion - Cute Things for Aesthetic Room Decor - Cool Candle for Cool Things – Holiday Hero",
      "url": "https://www.ebay.com/itm/doctor-pepper-candle-smells-like-the-real-soda-cute-candles-?mkevt=1&mkcid=1&mkrid=711-53200-19255-0&campid=BESTGIFTS&customid=027501314",
      "image": "/assets/amazon-sitestripe/amzn-3K6IhXl.svg",
      "price": "$24.99",
      "category": "For Gamers"
    },
    {
      "id": "ebay-007500314",
      "title": "Premium Funny Shart Survival Kit by Witty Yeti. Ultimate Poop Prank Gag Gift Set Contains Wet Wipes, Disposable Underwear, Tissues and Hilarious Badge. Novelty Fart Potty Pack Great for Friends or Family – Holiday Hero",
      "url": "https://www.ebay.com/itm/funny-shart-survival-kit-by-witty-yeti-ultimate-poop-prank-g?mkevt=1&mkcid=1&mkrid=711-53200-19255-0&campid=BESTGIFTS&customid=007500314",
      "image": "/assets/amazon-sitestripe/amzn-3IbSKjP.svg",
      "price": "$37.99",
      "category": "For Gamers"
    },
    {
      "id": "ebay-029501414",
      "title": "Premium Funny Star Trophy with Humorous Your Did It Inscription - Funny Graduation Gift Gifts for Coworkers Cute Desk Decor Birthday Gift Encouragement Gift Funny Gag Gifts – Fan-Favorite Upgrade",
      "url": "https://www.ebay.com/itm/funny-star-trophy-with-humorous-your-did-it-inscription-funn?mkevt=1&mkcid=1&mkrid=711-53200-19255-0&campid=BESTGIFTS&customid=029501414",
      "image": "/assets/amazon-sitestripe/amzn-3K7ykJh.svg",
      "price": "$9.99",
      "category": "For Fandom"
    }
  ]
}
