{
  "page": 16,
  "pageSize": 18,
  "totalPages": 23,
  "totalItems": 400,
  "items": [
    {
      "id": "ebay-016200801",
      "title": "Limited Edition Nostalgia 2 Slot Hot Dog and Bun Toaster with Mini Tongs, Retro Toaster, Cooker that Works Chicken, Turkey, Veggie Links, Sausages Brats, Metallic Red – Small Business Highlight",
      "url": "https://www.ebay.com/itm/nostalgia-2-slot-hot-dog-and-bun-toaster-with-mini-tongs-ret?mkevt=1&mkcid=1&mkrid=711-53200-19255-0&campid=BESTGIFTS&customid=016200801",
      "image": "/assets/amazon-sitestripe/amzn-3Ir5rHt.svg",
      "price": "$32.99",
      "category": "Productivity Power-Ups"
    },
    {
      "id": "ebay-002200101",
      "title": "Limited Edition Prank-O Original Gift Box, Wrap Your Real Present in a Funny Authentic Prank-O Gag Present Box, Novelty Gifting for Pranksters, Shark Tank (Roto Wipe) – Gift-Ready Listing",
      "url": "https://www.ebay.com/itm/prank-o-original-gift-box-wrap-your-real-present-in-a-funny-?mkevt=1&mkcid=1&mkrid=711-53200-19255-0&campid=BESTGIFTS&customid=002200101",
      "image": "/assets/amazon-sitestripe/amzn-3I2aKND.svg",
      "price": "$9.99",
      "category": "For Her"
    },
    {
      "id": "ebay-036201801",
      "title": "Limited Edition Ridley’s 100 Single Cheesy Joke Cards – Includes 100 Jokes for Kids and Adults, Funny Jokes for Family-Friendly Fun – Makes a Great Gift Idea – Small Business Highlight",
      "url": "https://www.ebay.com/itm/ridley-s-100-single-cheesy-joke-cards-includes-100-jokes-for?mkevt=1&mkcid=1&mkrid=711-53200-19255-0&campid=BESTGIFTS&customid=036201801",
      "image": "/assets/amazon-sitestripe/amzn-3VPEmRo.svg",
      "price": "$8.00",
      "category": "Productivity Power-Ups"
    },
    {
      "id": "ebay-000200001",
      "title": "Limited Edition Rolling Grill Basket, Removable Wooden Handle, 304 Stainless Steel, Nesting Grilling Tools, Smoker BBQ Accessories for Vegetable, Outdoor Cooking Camping, Birthday Gifts for Men Dad Husband – Rare Marketplace Find",
      "url": "https://www.ebay.com/itm/rolling-grill-basket-removable-wooden-handle-304-stainless-s?mkevt=1&mkcid=1&mkrid=711-53200-19255-0&campid=BESTGIFTS&customid=000200001",
      "image": "/assets/amazon-sitestripe/amzn-3I1wmJZ.svg",
      "price": "$23.99",
      "category": "For Him"
    },
    {
      "id": "ebay-038201901",
      "title": "Limited Edition Schylling NeeDoh Original - Sensory Fidget Toy - Assorted Colors - Ages 3 to Adult , 1 Count ( Pack of 1) – eBay Exclusive",
      "url": "https://www.ebay.com/itm/schylling-needoh-original-sensory-fidget-toy-assorted-colors?mkevt=1&mkcid=1&mkrid=711-53200-19255-0&campid=BESTGIFTS&customid=038201901",
      "image": "/assets/amazon-sitestripe/amzn-3VQCjfR.svg",
      "price": "$3.99",
      "category": "Family Time"
    },
    {
      "id": "ebay-004200201",
      "title": "Limited Edition SFOUR Astronaut Galaxy Projector Night Light，Lights for Bedroom,Kids Room Decor Aesthetic, Adjustable Head Angle,Gift for Kids Adults Home Party Ceiling Decor，Christmas Gift – Fast Shipping Pick",
      "url": "https://www.ebay.com/itm/sfour-astronaut-galaxy-projector-night-light-lights-for-bedr?mkevt=1&mkcid=1&mkrid=711-53200-19255-0&campid=BESTGIFTS&customid=004200201",
      "image": "/assets/amazon-sitestripe/amzn-3IbS6Tr.svg",
      "price": "$39.99",
      "category": "For a Techy"
    },
    {
      "id": "ebay-018200901",
      "title": "Limited Edition Small Pocket Knife Gift for Men, Keychain Box Cutter with 1.34inch Blade, Mini Folding Knives EDC Gadgets for Everyday Carry, Stocking Stuffers Gift for Adults Men Him – eBay Exclusive",
      "url": "https://www.ebay.com/itm/small-pocket-knife-gift-for-men-keychain-box-cutter-with-1-3?mkevt=1&mkcid=1&mkrid=711-53200-19255-0&campid=BESTGIFTS&customid=018200901",
      "image": "/assets/amazon-sitestripe/amzn-3It90Np.svg",
      "price": "$7.98",
      "category": "Family Time"
    },
    {
      "id": "ebay-022201101",
      "title": "Limited Edition Toilet Golf Game-Practice Mini Golf in Any Restroom/Bathroom - Great Toilet Time - Dad Gifts, Funny Gifts for Dad, Funny White Elephant Gifts, Gag Gifts for Husband, Boyfriend, Men – Gift-Ready Listing",
      "url": "https://www.ebay.com/itm/toilet-golf-game-practice-mini-golf-in-any-restroom-bathroom?mkevt=1&mkcid=1&mkrid=711-53200-19255-0&campid=BESTGIFTS&customid=022201101",
      "image": "/assets/amazon-sitestripe/amzn-3K47stH.svg",
      "price": "$15.99",
      "category": "For Her"
    },
    {
      "id": "ebay-020201001",
      "title": "Limited Edition YATSKIA Chakra Crystal Tree - Handmade Healing Crystal Trees with 7 Chakra Stones - Decorative Tree of Life for Meditation, Feng Shui, and Home Decor - Unique Birthday Gifts for Women – Rare Marketplace Find",
      "url": "https://www.ebay.com/itm/yatskia-chakra-crystal-tree-handmade-healing-crystal-trees-w?mkevt=1&mkcid=1&mkrid=711-53200-19255-0&campid=BESTGIFTS&customid=020201001",
      "image": "/assets/amazon-sitestripe/amzn-3K3A32p.svg",
      "price": "$23.99",
      "category": "For Him"
    },
    {
      "id": "ebay-009300412",
      "title": "Next-Level 11Pcs Funny Adult Ballpoint Pen Set, Premium Days of The Week Swear Cuss Word Pens for Office Gifts, Novelty Pens for Corworkers – Bestseller Spotlight",
      "url": "https://www.ebay.com/itm/11pcs-funny-adult-ballpoint-pen-set-premium-days-of-the-week?mkevt=1&mkcid=1&mkrid=711-53200-19255-0&campid=BESTGIFTS&customid=009300412",
      "image": "/assets/amazon-sitestripe/amzn-3Ig0AsI.svg",
      "price": "$6.99",
      "category": "For Fandom"
    },
    {
      "id": "ebay-015300712",
      "title": "Next-Level Bangp Baseball Ice Cube Molds,Novelty Baseball Gifts Ball Ice Maker Mold,2.2\" Large Sphere Round Ice Cube Mold,Fun Shapes Large Whiskey Ice Cube Tray for Cocktails,Bourbon – Small Business Highlight",
      "url": "https://www.ebay.com/itm/bangp-baseball-ice-cube-molds-novelty-baseball-gifts-ball-ic?mkevt=1&mkcid=1&mkrid=711-53200-19255-0&campid=BESTGIFTS&customid=015300712",
      "image": "/assets/amazon-sitestripe/amzn-3Ir56Vd.svg",
      "price": "$11.97",
      "category": "Wellness Warriors"
    },
    {
      "id": "ebay-033301612",
      "title": "Next-Level Chia Pet Hedgehog with Seed Pack, Decorative Pottery Planter, Easy to Do and Fun to Grow, Novelty Gift, Perfect for Any Occasion, Terra Cotta – Fan-Favorite Upgrade",
      "url": "https://www.ebay.com/itm/chia-pet-hedgehog-with-seed-pack-decorative-pottery-planter-?mkevt=1&mkcid=1&mkrid=711-53200-19255-0&campid=BESTGIFTS&customid=033301612",
      "image": "/assets/amazon-sitestripe/amzn-3KaaegW.svg",
      "price": "$24.99",
      "category": "For Adventurers"
    },
    {
      "id": "ebay-035301712",
      "title": "Next-Level COLORLIFE Twister Hurricane Light- Novelty Nature Decor Gift for Boys Girls, Men, Women Mini Water Vortex Maker Mood Night Light Birthday Holiday Christmas – Small Business Highlight",
      "url": "https://www.ebay.com/itm/colorlife-twister-hurricane-light-novelty-nature-decor-gift-?mkevt=1&mkcid=1&mkrid=711-53200-19255-0&campid=BESTGIFTS&customid=035301712",
      "image": "/assets/amazon-sitestripe/amzn-3Kditc9.svg",
      "price": "$22.98",
      "category": "Wellness Warriors"
    },
    {
      "id": "ebay-027301312",
      "title": "Next-Level Doctor Pepper Candle - Smells Like The Real Soda - Cute Candles for Cool Gifts - Funny Candles for Any Occasion - Cute Things for Aesthetic Room Decor - Cool Candle for Cool Things – Verified Seller",
      "url": "https://www.ebay.com/itm/doctor-pepper-candle-smells-like-the-real-soda-cute-candles-?mkevt=1&mkcid=1&mkrid=711-53200-19255-0&campid=BESTGIFTS&customid=027301312",
      "image": "/assets/amazon-sitestripe/amzn-3K6IhXl.svg",
      "price": "$24.99",
      "category": "For Gamers"
    },
    {
      "id": "ebay-007300312",
      "title": "Next-Level Funny Shart Survival Kit by Witty Yeti. Ultimate Poop Prank Gag Gift Set Contains Wet Wipes, Disposable Underwear, Tissues and Hilarious Badge. Novelty Fart Potty Pack Great for Friends or Family – Verified Seller",
      "url": "https://www.ebay.com/itm/funny-shart-survival-kit-by-witty-yeti-ultimate-poop-prank-g?mkevt=1&mkcid=1&mkrid=711-53200-19255-0&campid=BESTGIFTS&customid=007300312",
      "image": "/assets/amazon-sitestripe/amzn-3IbSKjP.svg",
      "price": "$37.99",
      "category": "For Gamers"
    },
    {
      "id": "ebay-029301412",
      "title": "Next-Level Funny Star Trophy with Humorous Your Did It Inscription - Funny Graduation Gift Gifts for Coworkers Cute Desk Decor Birthday Gift Encouragement Gift Funny Gag Gifts – Bestseller Spotlight",
      "url": "https://www.ebay.com/itm/funny-star-trophy-with-humorous-your-did-it-inscription-funn?mkevt=1&mkcid=1&mkrid=711-53200-19255-0&campid=BESTGIFTS&customid=029301412",
      "image": "/assets/amazon-sitestripe/amzn-3K7ykJh.svg",
      "price": "$9.99",
      "category": "For Fandom"
    },
    {
      "id": "ebay-011300512",
      "title": "Next-Level Gift Not Included Batteries Gag Gift - Funny Prank for Present Adults for Women Men - Stocking Stuffer for Him Her Boyfriend Girlfriend – Holiday Hero",
      "url": "https://www.ebay.com/itm/gift-not-included-batteries-gag-gift-funny-prank-for-present?mkevt=1&mkcid=1&mkrid=711-53200-19255-0&campid=BESTGIFTS&customid=011300512",
      "image": "/assets/amazon-sitestripe/amzn-3IgMUxG.svg",
      "price": "$4.95",
      "category": "Homebody Upgrades"
    },
    {
      "id": "ebay-025301212",
      "title": "Next-Level LcFun Waterproof Electric Dual Arc Lighter USB Rechargeable Outdoor Windproof Flameless Plasma Lighters for Camping, Hiking, Adventure, Survival Tactical Gear Stocking Stuffers Gifts for Men – Money-Back Guarantee",
      "url": "https://www.ebay.com/itm/lcfun-waterproof-electric-dual-arc-lighter-usb-rechargeable-?mkevt=1&mkcid=1&mkrid=711-53200-19255-0&campid=BESTGIFTS&customid=025301212",
      "image": "/assets/amazon-sitestripe/amzn-3K5sHeG.svg",
      "price": "$8.09",
      "category": "For a Techy"
    }
  ]
}
