{
  "page": 1,
  "pageSize": 18,
  "totalPages": 23,
  "totalItems": 400,
  "items": [
    {
      "id": "ebay-011800517",
      "title": "Adventure Gift Not Included Batteries Gag Gift - Funny Prank for Present Adults for Women Men - Stocking Stuffer for Him Her Boyfriend Girlfriend – Gift-Ready Listing",
      "url": "https://www.ebay.com/itm/gift-not-included-batteries-gag-gift-funny-prank-for-present?mkevt=1&mkcid=1&mkrid=711-53200-19255-0&campid=BESTGIFTS&customid=011800517",
      "image": "/assets/amazon-sitestripe/amzn-3IgMUxG.svg",
      "price": "$4.95",
      "category": "Homebody Upgrades"
    },
    {
      "id": "ebay-031801517",
      "title": "Adventure LEGO Roses - Building Toy for Kids, Girls & Boys, Ages 8+ - Artificial, Fake Roses for Home Decor & Display - Gift Idea for Plant & Flower Lovers - 40460 – Gift-Ready Listing",
      "url": "https://www.ebay.com/itm/lego-roses-building-toy-for-kids-girls-boys-ages-8-artificia?mkevt=1&mkcid=1&mkrid=711-53200-19255-0&campid=BESTGIFTS&customid=031801517",
      "image": "/assets/amazon-sitestripe/amzn-3K8wkR2.svg",
      "price": "$8.99",
      "category": "Homebody Upgrades"
    },
    {
      "id": "ebay-030701506",
      "title": "Boutique LEGO Roses - Building Toy for Kids, Girls & Boys, Ages 8+ - Artificial, Fake Roses for Home Decor & Display - Gift Idea for Plant & Flower Lovers - 40460 – Rare Marketplace Find",
      "url": "https://www.ebay.com/itm/lego-roses-building-toy-for-kids-girls-boys-ages-8-artificia?mkevt=1&mkcid=1&mkrid=711-53200-19255-0&campid=BESTGIFTS&customid=030701506",
      "image": "/assets/amazon-sitestripe/amzn-3K8wkR2.svg",
      "price": "$8.99",
      "category": "Homebody Upgrades"
    },
    {
      "id": "ebay-013700616",
      "title": "Cozy LEGO Botanicals Tiny Plants - Artificial, Fake Indoor Plant Building Set for Home, Kitchen, Desk Decoration, Adults Ages 18+ - Gift for Birthdays - 10329 – Gift-Ready Listing",
      "url": "https://www.ebay.com/itm/lego-botanicals-tiny-plants-artificial-fake-indoor-plant-bui?mkevt=1&mkcid=1&mkrid=711-53200-19255-0&campid=BESTGIFTS&customid=013700616",
      "image": "/assets/amazon-sitestripe/amzn-3IoJ99k.svg",
      "price": "$39.95",
      "category": "For Adventurers"
    },
    {
      "id": "ebay-003700116",
      "title": "Cozy Prank-O Original Gift Box, Wrap Your Real Present in a Funny Authentic Prank-O Gag Present Box, Novelty Gifting for Pranksters, Shark Tank (Roto Wipe) – Holiday Hero",
      "url": "https://www.ebay.com/itm/prank-o-original-gift-box-wrap-your-real-present-in-a-funny-?mkevt=1&mkcid=1&mkrid=711-53200-19255-0&campid=BESTGIFTS&customid=003700116",
      "image": "/assets/amazon-sitestripe/amzn-3I2aKND.svg",
      "price": "$9.99",
      "category": "For Her"
    },
    {
      "id": "ebay-008100400",
      "title": "Curated 11Pcs Funny Adult Ballpoint Pen Set, Premium Days of The Week Swear Cuss Word Pens for Office Gifts, Novelty Pens for Corworkers – Money-Back Guarantee",
      "url": "https://www.ebay.com/itm/11pcs-funny-adult-ballpoint-pen-set-premium-days-of-the-week?mkevt=1&mkcid=1&mkrid=711-53200-19255-0&campid=BESTGIFTS&customid=008100400",
      "image": "/assets/amazon-sitestripe/amzn-3Ig0AsI.svg",
      "price": "$6.99",
      "category": "For Fandom"
    },
    {
      "id": "ebay-012100600",
      "title": "Curated LEGO Botanicals Tiny Plants - Artificial, Fake Indoor Plant Building Set for Home, Kitchen, Desk Decoration, Adults Ages 18+ - Gift for Birthdays - 10329 – Bestseller Spotlight",
      "url": "https://www.ebay.com/itm/lego-botanicals-tiny-plants-artificial-fake-indoor-plant-bui?mkevt=1&mkcid=1&mkrid=711-53200-19255-0&campid=BESTGIFTS&customid=012100600",
      "image": "/assets/amazon-sitestripe/amzn-3IoJ99k.svg",
      "price": "$39.95",
      "category": "For Adventurers"
    },
    {
      "id": "ebay-009400413",
      "title": "Everyday 11Pcs Funny Adult Ballpoint Pen Set, Premium Days of The Week Swear Cuss Word Pens for Office Gifts, Novelty Pens for Corworkers – Holiday Hero",
      "url": "https://www.ebay.com/itm/11pcs-funny-adult-ballpoint-pen-set-premium-days-of-the-week?mkevt=1&mkcid=1&mkrid=711-53200-19255-0&campid=BESTGIFTS&customid=009400413",
      "image": "/assets/amazon-sitestripe/amzn-3Ig0AsI.svg",
      "price": "$6.99",
      "category": "For Fandom"
    },
    {
      "id": "ebay-013400613",
      "title": "Everyday LEGO Botanicals Tiny Plants - Artificial, Fake Indoor Plant Building Set for Home, Kitchen, Desk Decoration, Adults Ages 18+ - Gift for Birthdays - 10329 – Small Business Highlight",
      "url": "https://www.ebay.com/itm/lego-botanicals-tiny-plants-artificial-fake-indoor-plant-bui?mkevt=1&mkcid=1&mkrid=711-53200-19255-0&campid=BESTGIFTS&customid=013400613",
      "image": "/assets/amazon-sitestripe/amzn-3IoJ99k.svg",
      "price": "$39.95",
      "category": "For Adventurers"
    },
    {
      "id": "ebay-012800607",
      "title": "Handpicked LEGO Botanicals Tiny Plants - Artificial, Fake Indoor Plant Building Set for Home, Kitchen, Desk Decoration, Adults Ages 18+ - Gift for Birthdays - 10329 – Fast Shipping Pick",
      "url": "https://www.ebay.com/itm/lego-botanicals-tiny-plants-artificial-fake-indoor-plant-bui?mkevt=1&mkcid=1&mkrid=711-53200-19255-0&campid=BESTGIFTS&customid=012800607",
      "image": "/assets/amazon-sitestripe/amzn-3IoJ99k.svg",
      "price": "$39.95",
      "category": "For Adventurers"
    },
    {
      "id": "ebay-012200601",
      "title": "Limited Edition LEGO Botanicals Tiny Plants - Artificial, Fake Indoor Plant Building Set for Home, Kitchen, Desk Decoration, Adults Ages 18+ - Gift for Birthdays - 10329 – Holiday Hero",
      "url": "https://www.ebay.com/itm/lego-botanicals-tiny-plants-artificial-fake-indoor-plant-bui?mkevt=1&mkcid=1&mkrid=711-53200-19255-0&campid=BESTGIFTS&customid=012200601",
      "image": "/assets/amazon-sitestripe/amzn-3IoJ99k.svg",
      "price": "$39.95",
      "category": "For Adventurers"
    },
    {
      "id": "ebay-013300612",
      "title": "Next-Level LEGO Botanicals Tiny Plants - Artificial, Fake Indoor Plant Building Set for Home, Kitchen, Desk Decoration, Adults Ages 18+ - Gift for Birthdays - 10329 – Fan-Favorite Upgrade",
      "url": "https://www.ebay.com/itm/lego-botanicals-tiny-plants-artificial-fake-indoor-plant-bui?mkevt=1&mkcid=1&mkrid=711-53200-19255-0&campid=BESTGIFTS&customid=013300612",
      "image": "/assets/amazon-sitestripe/amzn-3IoJ99k.svg",
      "price": "$39.95",
      "category": "For Adventurers"
    },
    {
      "id": "ebay-013500614",
      "title": "Premium LEGO Botanicals Tiny Plants - Artificial, Fake Indoor Plant Building Set for Home, Kitchen, Desk Decoration, Adults Ages 18+ - Gift for Birthdays - 10329 – eBay Exclusive",
      "url": "https://www.ebay.com/itm/lego-botanicals-tiny-plants-artificial-fake-indoor-plant-bui?mkevt=1&mkcid=1&mkrid=711-53200-19255-0&campid=BESTGIFTS&customid=013500614",
      "image": "/assets/amazon-sitestripe/amzn-3IoJ99k.svg",
      "price": "$39.95",
      "category": "For Adventurers"
    },
    {
      "id": "ebay-031501514",
      "title": "Premium LEGO Roses - Building Toy for Kids, Girls & Boys, Ages 8+ - Artificial, Fake Roses for Home Decor & Display - Gift Idea for Plant & Flower Lovers - 40460 – Small Business Highlight",
      "url": "https://www.ebay.com/itm/lego-roses-building-toy-for-kids-girls-boys-ages-8-artificia?mkevt=1&mkcid=1&mkrid=711-53200-19255-0&campid=BESTGIFTS&customid=031501514",
      "image": "/assets/amazon-sitestripe/amzn-3K8wkR2.svg",
      "price": "$8.99",
      "category": "Homebody Upgrades"
    },
    {
      "id": "ebay-013200611",
      "title": "Smart LEGO Botanicals Tiny Plants - Artificial, Fake Indoor Plant Building Set for Home, Kitchen, Desk Decoration, Adults Ages 18+ - Gift for Birthdays - 10329 – Holiday Hero",
      "url": "https://www.ebay.com/itm/lego-botanicals-tiny-plants-artificial-fake-indoor-plant-bui?mkevt=1&mkcid=1&mkrid=711-53200-19255-0&campid=BESTGIFTS&customid=013200611",
      "image": "/assets/amazon-sitestripe/amzn-3IoJ99k.svg",
      "price": "$39.95",
      "category": "For Adventurers"
    },
    {
      "id": "ebay-031201511",
      "title": "Smart LEGO Roses - Building Toy for Kids, Girls & Boys, Ages 8+ - Artificial, Fake Roses for Home Decor & Display - Gift Idea for Plant & Flower Lovers - 40460 – Bestseller Spotlight",
      "url": "https://www.ebay.com/itm/lego-roses-building-toy-for-kids-girls-boys-ages-8-artificia?mkevt=1&mkcid=1&mkrid=711-53200-19255-0&campid=BESTGIFTS&customid=031201511",
      "image": "/assets/amazon-sitestripe/amzn-3K8wkR2.svg",
      "price": "$8.99",
      "category": "Homebody Upgrades"
    },
    {
      "id": "ebay-013600615",
      "title": "Sustainable LEGO Botanicals Tiny Plants - Artificial, Fake Indoor Plant Building Set for Home, Kitchen, Desk Decoration, Adults Ages 18+ - Gift for Birthdays - 10329 – Rare Marketplace Find",
      "url": "https://www.ebay.com/itm/lego-botanicals-tiny-plants-artificial-fake-indoor-plant-bui?mkevt=1&mkcid=1&mkrid=711-53200-19255-0&campid=BESTGIFTS&customid=013600615",
      "image": "/assets/amazon-sitestripe/amzn-3IoJ99k.svg",
      "price": "$39.95",
      "category": "For Adventurers"
    },
    {
      "id": "ebay-006300302",
      "title": "Trending Funny Shart Survival Kit by Witty Yeti. Ultimate Poop Prank Gag Gift Set Contains Wet Wipes, Disposable Underwear, Tissues and Hilarious Badge. Novelty Fart Potty Pack Great for Friends or Family – Verified Seller",
      "url": "https://www.ebay.com/itm/funny-shart-survival-kit-by-witty-yeti-ultimate-poop-prank-g?mkevt=1&mkcid=1&mkrid=711-53200-19255-0&campid=BESTGIFTS&customid=006300302",
      "image": "/assets/amazon-sitestripe/amzn-3IbSKjP.svg",
      "price": "$37.99",
      "category": "For Gamers"
    }
  ]
}
