{
  "page": 11,
  "pageSize": 18,
  "totalPages": 23,
  "totalItems": 400,
  "items": [
    {
      "id": "ebay-037101810",
      "title": "Designer Ridley’s 100 Single Cheesy Joke Cards – Includes 100 Jokes for Kids and Adults, Funny Jokes for Family-Friendly Fun – Makes a Great Gift Idea – Fan-Favorite Upgrade",
      "url": "https://www.ebay.com/itm/ridley-s-100-single-cheesy-joke-cards-includes-100-jokes-for?mkevt=1&mkcid=1&mkrid=711-53200-19255-0&campid=BESTGIFTS&customid=037101810",
      "image": "/assets/amazon-sitestripe/amzn-3VPEmRo.svg",
      "price": "$8.00",
      "category": "Productivity Power-Ups"
    },
    {
      "id": "ebay-019100910",
      "title": "Designer Small Pocket Knife Gift for Men, Keychain Box Cutter with 1.34inch Blade, Mini Folding Knives EDC Gadgets for Everyday Carry, Stocking Stuffers Gift for Adults Men Him – Small Business Highlight",
      "url": "https://www.ebay.com/itm/small-pocket-knife-gift-for-men-keychain-box-cutter-with-1-3?mkevt=1&mkcid=1&mkrid=711-53200-19255-0&campid=BESTGIFTS&customid=019100910",
      "image": "/assets/amazon-sitestripe/amzn-3It90Np.svg",
      "price": "$7.98",
      "category": "Family Time"
    },
    {
      "id": "ebay-026401303",
      "title": "Editor's Doctor Pepper Candle - Smells Like The Real Soda - Cute Candles for Cool Gifts - Funny Candles for Any Occasion - Cute Things for Aesthetic Room Decor - Cool Candle for Cool Things – Bestseller Spotlight",
      "url": "https://www.ebay.com/itm/doctor-pepper-candle-smells-like-the-real-soda-cute-candles-?mkevt=1&mkcid=1&mkrid=711-53200-19255-0&campid=BESTGIFTS&customid=026401303",
      "image": "/assets/amazon-sitestripe/amzn-3K6IhXl.svg",
      "price": "$24.99",
      "category": "For Gamers"
    },
    {
      "id": "ebay-018400903",
      "title": "Editor's Small Pocket Knife Gift for Men, Keychain Box Cutter with 1.34inch Blade, Mini Folding Knives EDC Gadgets for Everyday Carry, Stocking Stuffers Gift for Adults Men Him – Gift-Ready Listing",
      "url": "https://www.ebay.com/itm/small-pocket-knife-gift-for-men-keychain-box-cutter-with-1-3?mkevt=1&mkcid=1&mkrid=711-53200-19255-0&campid=BESTGIFTS&customid=018400903",
      "image": "/assets/amazon-sitestripe/amzn-3It90Np.svg",
      "price": "$7.98",
      "category": "Family Time"
    },
    {
      "id": "ebay-014600705",
      "title": "Gifting Bangp Baseball Ice Cube Molds,Novelty Baseball Gifts Ball Ice Maker Mold,2.2\" Large Sphere Round Ice Cube Mold,Fun Shapes Large Whiskey Ice Cube Tray for Cocktails,Bourbon – Gift-Ready Listing",
      "url": "https://www.ebay.com/itm/bangp-baseball-ice-cube-molds-novelty-baseball-gifts-ball-ic?mkevt=1&mkcid=1&mkrid=711-53200-19255-0&campid=BESTGIFTS&customid=014600705",
      "image": "/assets/amazon-sitestripe/amzn-3Ir56Vd.svg",
      "price": "$11.97",
      "category": "Wellness Warriors"
    },
    {
      "id": "ebay-034601705",
      "title": "Gifting COLORLIFE Twister Hurricane Light- Novelty Nature Decor Gift for Boys Girls, Men, Women Mini Water Vortex Maker Mood Night Light Birthday Holiday Christmas – Gift-Ready Listing",
      "url": "https://www.ebay.com/itm/colorlife-twister-hurricane-light-novelty-nature-decor-gift-?mkevt=1&mkcid=1&mkrid=711-53200-19255-0&campid=BESTGIFTS&customid=034601705",
      "image": "/assets/amazon-sitestripe/amzn-3Kditc9.svg",
      "price": "$22.98",
      "category": "Wellness Warriors"
    },
    {
      "id": "ebay-028601405",
      "title": "Gifting Funny Star Trophy with Humorous Your Did It Inscription - Funny Graduation Gift Gifts for Coworkers Cute Desk Decor Birthday Gift Encouragement Gift Funny Gag Gifts – Small Business Highlight",
      "url": "https://www.ebay.com/itm/funny-star-trophy-with-humorous-your-did-it-inscription-funn?mkevt=1&mkcid=1&mkrid=711-53200-19255-0&campid=BESTGIFTS&customid=028601405",
      "image": "/assets/amazon-sitestripe/amzn-3K7ykJh.svg",
      "price": "$9.99",
      "category": "For Fandom"
    },
    {
      "id": "ebay-018600905",
      "title": "Gifting Small Pocket Knife Gift for Men, Keychain Box Cutter with 1.34inch Blade, Mini Folding Knives EDC Gadgets for Everyday Carry, Stocking Stuffers Gift for Adults Men Him – Money-Back Guarantee",
      "url": "https://www.ebay.com/itm/small-pocket-knife-gift-for-men-keychain-box-cutter-with-1-3?mkevt=1&mkcid=1&mkrid=711-53200-19255-0&campid=BESTGIFTS&customid=018600905",
      "image": "/assets/amazon-sitestripe/amzn-3It90Np.svg",
      "price": "$7.98",
      "category": "Family Time"
    },
    {
      "id": "ebay-006800307",
      "title": "Handpicked Funny Shart Survival Kit by Witty Yeti. Ultimate Poop Prank Gag Gift Set Contains Wet Wipes, Disposable Underwear, Tissues and Hilarious Badge. Novelty Fart Potty Pack Great for Friends or Family – eBay Exclusive",
      "url": "https://www.ebay.com/itm/funny-shart-survival-kit-by-witty-yeti-ultimate-poop-prank-g?mkevt=1&mkcid=1&mkrid=711-53200-19255-0&campid=BESTGIFTS&customid=006800307",
      "image": "/assets/amazon-sitestripe/amzn-3IbSKjP.svg",
      "price": "$37.99",
      "category": "For Gamers"
    },
    {
      "id": "ebay-030801507",
      "title": "Handpicked LEGO Roses - Building Toy for Kids, Girls & Boys, Ages 8+ - Artificial, Fake Roses for Home Decor & Display - Gift Idea for Plant & Flower Lovers - 40460 – Gift-Ready Listing",
      "url": "https://www.ebay.com/itm/lego-roses-building-toy-for-kids-girls-boys-ages-8-artificia?mkevt=1&mkcid=1&mkrid=711-53200-19255-0&campid=BESTGIFTS&customid=030801507",
      "image": "/assets/amazon-sitestripe/amzn-3K8wkR2.svg",
      "price": "$8.99",
      "category": "Homebody Upgrades"
    },
    {
      "id": "ebay-008900408",
      "title": "Highly Rated 11Pcs Funny Adult Ballpoint Pen Set, Premium Days of The Week Swear Cuss Word Pens for Office Gifts, Novelty Pens for Corworkers – Gift-Ready Listing",
      "url": "https://www.ebay.com/itm/11pcs-funny-adult-ballpoint-pen-set-premium-days-of-the-week?mkevt=1&mkcid=1&mkrid=711-53200-19255-0&campid=BESTGIFTS&customid=008900408",
      "image": "/assets/amazon-sitestripe/amzn-3Ig0AsI.svg",
      "price": "$6.99",
      "category": "For Fandom"
    },
    {
      "id": "ebay-026901308",
      "title": "Highly Rated Doctor Pepper Candle - Smells Like The Real Soda - Cute Candles for Cool Gifts - Funny Candles for Any Occasion - Cute Things for Aesthetic Room Decor - Cool Candle for Cool Things – Rare Marketplace Find",
      "url": "https://www.ebay.com/itm/doctor-pepper-candle-smells-like-the-real-soda-cute-candles-?mkevt=1&mkcid=1&mkrid=711-53200-19255-0&campid=BESTGIFTS&customid=026901308",
      "image": "/assets/amazon-sitestripe/amzn-3K6IhXl.svg",
      "price": "$24.99",
      "category": "For Gamers"
    },
    {
      "id": "ebay-006900308",
      "title": "Highly Rated Funny Shart Survival Kit by Witty Yeti. Ultimate Poop Prank Gag Gift Set Contains Wet Wipes, Disposable Underwear, Tissues and Hilarious Badge. Novelty Fart Potty Pack Great for Friends or Family – Rare Marketplace Find",
      "url": "https://www.ebay.com/itm/funny-shart-survival-kit-by-witty-yeti-ultimate-poop-prank-g?mkevt=1&mkcid=1&mkrid=711-53200-19255-0&campid=BESTGIFTS&customid=006900308",
      "image": "/assets/amazon-sitestripe/amzn-3IbSKjP.svg",
      "price": "$37.99",
      "category": "For Gamers"
    },
    {
      "id": "ebay-024901208",
      "title": "Highly Rated LcFun Waterproof Electric Dual Arc Lighter USB Rechargeable Outdoor Windproof Flameless Plasma Lighters for Camping, Hiking, Adventure, Survival Tactical Gear Stocking Stuffers Gifts for Men – eBay Exclusive",
      "url": "https://www.ebay.com/itm/lcfun-waterproof-electric-dual-arc-lighter-usb-rechargeable-?mkevt=1&mkcid=1&mkrid=711-53200-19255-0&campid=BESTGIFTS&customid=024901208",
      "image": "/assets/amazon-sitestripe/amzn-3K5sHeG.svg",
      "price": "$8.09",
      "category": "For a Techy"
    },
    {
      "id": "ebay-007900318",
      "title": "Inspired Funny Shart Survival Kit by Witty Yeti. Ultimate Poop Prank Gag Gift Set Contains Wet Wipes, Disposable Underwear, Tissues and Hilarious Badge. Novelty Fart Potty Pack Great for Friends or Family – Rare Marketplace Find",
      "url": "https://www.ebay.com/itm/funny-shart-survival-kit-by-witty-yeti-ultimate-poop-prank-g?mkevt=1&mkcid=1&mkrid=711-53200-19255-0&campid=BESTGIFTS&customid=007900318",
      "image": "/assets/amazon-sitestripe/amzn-3IbSKjP.svg",
      "price": "$37.99",
      "category": "For Gamers"
    },
    {
      "id": "ebay-023901118",
      "title": "Inspired Toilet Golf Game-Practice Mini Golf in Any Restroom/Bathroom - Great Toilet Time - Dad Gifts, Funny Gifts for Dad, Funny White Elephant Gifts, Gag Gifts for Husband, Boyfriend, Men – Small Business Highlight",
      "url": "https://www.ebay.com/itm/toilet-golf-game-practice-mini-golf-in-any-restroom-bathroom?mkevt=1&mkcid=1&mkrid=711-53200-19255-0&campid=BESTGIFTS&customid=023901118",
      "image": "/assets/amazon-sitestripe/amzn-3K47stH.svg",
      "price": "$15.99",
      "category": "For Her"
    },
    {
      "id": "ebay-021901018",
      "title": "Inspired YATSKIA Chakra Crystal Tree - Handmade Healing Crystal Trees with 7 Chakra Stones - Decorative Tree of Life for Meditation, Feng Shui, and Home Decor - Unique Birthday Gifts for Women – Fan-Favorite Upgrade",
      "url": "https://www.ebay.com/itm/yatskia-chakra-crystal-tree-handmade-healing-crystal-trees-w?mkevt=1&mkcid=1&mkrid=711-53200-19255-0&campid=BESTGIFTS&customid=021901018",
      "image": "/assets/amazon-sitestripe/amzn-3K3A32p.svg",
      "price": "$23.99",
      "category": "For Him"
    },
    {
      "id": "ebay-014200701",
      "title": "Limited Edition Bangp Baseball Ice Cube Molds,Novelty Baseball Gifts Ball Ice Maker Mold,2.2\" Large Sphere Round Ice Cube Mold,Fun Shapes Large Whiskey Ice Cube Tray for Cocktails,Bourbon – Fan-Favorite Upgrade",
      "url": "https://www.ebay.com/itm/bangp-baseball-ice-cube-molds-novelty-baseball-gifts-ball-ic?mkevt=1&mkcid=1&mkrid=711-53200-19255-0&campid=BESTGIFTS&customid=014200701",
      "image": "/assets/amazon-sitestripe/amzn-3Ir56Vd.svg",
      "price": "$11.97",
      "category": "Wellness Warriors"
    }
  ]
}
