{
  "page": 18,
  "pageSize": 18,
  "totalPages": 23,
  "totalItems": 400,
  "items": [
    {
      "id": "ebay-029901418",
      "title": "Inspired Funny Star Trophy with Humorous Your Did It Inscription - Funny Graduation Gift Gifts for Coworkers Cute Desk Decor Birthday Gift Encouragement Gift Funny Gag Gifts – Gift-Ready Listing",
      "url": "https://www.ebay.com/itm/funny-star-trophy-with-humorous-your-did-it-inscription-funn?mkevt=1&mkcid=1&mkrid=711-53200-19255-0&campid=BESTGIFTS&customid=029901418",
      "image": "/assets/amazon-sitestripe/amzn-3K7ykJh.svg",
      "price": "$9.99",
      "category": "For Fandom"
    },
    {
      "id": "ebay-019900918",
      "title": "Inspired Small Pocket Knife Gift for Men, Keychain Box Cutter with 1.34inch Blade, Mini Folding Knives EDC Gadgets for Everyday Carry, Stocking Stuffers Gift for Adults Men Him – Holiday Hero",
      "url": "https://www.ebay.com/itm/small-pocket-knife-gift-for-men-keychain-box-cutter-with-1-3?mkevt=1&mkcid=1&mkrid=711-53200-19255-0&campid=BESTGIFTS&customid=019900918",
      "image": "/assets/amazon-sitestripe/amzn-3It90Np.svg",
      "price": "$7.98",
      "category": "Family Time"
    },
    {
      "id": "ebay-025801217",
      "title": "LcFun Waterproof Electric Dual Arc Lighter USB Rechargeable Outdoor Windproof Flameless Plasma Lighters for Camping, Hiking, Adventure, Survival Tactical Gear Stocking Stuffers Gifts for Men – Small Business Highlight",
      "url": "https://www.ebay.com/itm/lcfun-waterproof-electric-dual-arc-lighter-usb-rechargeable-?mkevt=1&mkcid=1&mkrid=711-53200-19255-0&campid=BESTGIFTS&customid=025801217",
      "image": "/assets/amazon-sitestripe/amzn-3K5sHeG.svg",
      "price": "$8.09",
      "category": "For a Techy"
    },
    {
      "id": "ebay-034201701",
      "title": "Limited Edition COLORLIFE Twister Hurricane Light- Novelty Nature Decor Gift for Boys Girls, Men, Women Mini Water Vortex Maker Mood Night Light Birthday Holiday Christmas – Fan-Favorite Upgrade",
      "url": "https://www.ebay.com/itm/colorlife-twister-hurricane-light-novelty-nature-decor-gift-?mkevt=1&mkcid=1&mkrid=711-53200-19255-0&campid=BESTGIFTS&customid=034201701",
      "image": "/assets/amazon-sitestripe/amzn-3Kditc9.svg",
      "price": "$22.98",
      "category": "Wellness Warriors"
    },
    {
      "id": "ebay-004200201",
      "title": "Limited Edition SFOUR Astronaut Galaxy Projector Night Light，Lights for Bedroom,Kids Room Decor Aesthetic, Adjustable Head Angle,Gift for Kids Adults Home Party Ceiling Decor，Christmas Gift – Fast Shipping Pick",
      "url": "https://www.ebay.com/itm/sfour-astronaut-galaxy-projector-night-light-lights-for-bedr?mkevt=1&mkcid=1&mkrid=711-53200-19255-0&campid=BESTGIFTS&customid=004200201",
      "image": "/assets/amazon-sitestripe/amzn-3IbS6Tr.svg",
      "price": "$39.99",
      "category": "For a Techy"
    },
    {
      "id": "ebay-037301812",
      "title": "Next-Level Ridley’s 100 Single Cheesy Joke Cards – Includes 100 Jokes for Kids and Adults, Funny Jokes for Family-Friendly Fun – Makes a Great Gift Idea – eBay Exclusive",
      "url": "https://www.ebay.com/itm/ridley-s-100-single-cheesy-joke-cards-includes-100-jokes-for?mkevt=1&mkcid=1&mkrid=711-53200-19255-0&campid=BESTGIFTS&customid=037301812",
      "image": "/assets/amazon-sitestripe/amzn-3VPEmRo.svg",
      "price": "$8.00",
      "category": "Productivity Power-Ups"
    },
    {
      "id": "ebay-021301012",
      "title": "Next-Level YATSKIA Chakra Crystal Tree - Handmade Healing Crystal Trees with 7 Chakra Stones - Decorative Tree of Life for Meditation, Feng Shui, and Home Decor - Unique Birthday Gifts for Women – Gift-Ready Listing",
      "url": "https://www.ebay.com/itm/yatskia-chakra-crystal-tree-handmade-healing-crystal-trees-w?mkevt=1&mkcid=1&mkrid=711-53200-19255-0&campid=BESTGIFTS&customid=021301012",
      "image": "/assets/amazon-sitestripe/amzn-3K3A32p.svg",
      "price": "$23.99",
      "category": "For Him"
    },
    {
      "id": "ebay-015500714",
      "title": "Premium Bangp Baseball Ice Cube Molds,Novelty Baseball Gifts Ball Ice Maker Mold,2.2\" Large Sphere Round Ice Cube Mold,Fun Shapes Large Whiskey Ice Cube Tray for Cocktails,Bourbon – Rare Marketplace Find",
      "url": "https://www.ebay.com/itm/bangp-baseball-ice-cube-molds-novelty-baseball-gifts-ball-ic?mkevt=1&mkcid=1&mkrid=711-53200-19255-0&campid=BESTGIFTS&customid=015500714",
      "image": "/assets/amazon-sitestripe/amzn-3Ir56Vd.svg",
      "price": "$11.97",
      "category": "Wellness Warriors"
    },
    {
      "id": "ebay-001500014",
      "title": "Premium Rolling Grill Basket, Removable Wooden Handle, 304 Stainless Steel, Nesting Grilling Tools, Smoker BBQ Accessories for Vegetable, Outdoor Cooking Camping, Birthday Gifts for Men Dad Husband – Money-Back Guarantee",
      "url": "https://www.ebay.com/itm/rolling-grill-basket-removable-wooden-handle-304-stainless-s?mkevt=1&mkcid=1&mkrid=711-53200-19255-0&campid=BESTGIFTS&customid=001500014",
      "image": "/assets/amazon-sitestripe/amzn-3I1wmJZ.svg",
      "price": "$23.99",
      "category": "For Him"
    },
    {
      "id": "ebay-005500214",
      "title": "Premium SFOUR Astronaut Galaxy Projector Night Light，Lights for Bedroom,Kids Room Decor Aesthetic, Adjustable Head Angle,Gift for Kids Adults Home Party Ceiling Decor，Christmas Gift – Bestseller Spotlight",
      "url": "https://www.ebay.com/itm/sfour-astronaut-galaxy-projector-night-light-lights-for-bedr?mkevt=1&mkcid=1&mkrid=711-53200-19255-0&campid=BESTGIFTS&customid=005500214",
      "image": "/assets/amazon-sitestripe/amzn-3IbS6Tr.svg",
      "price": "$39.99",
      "category": "For a Techy"
    },
    {
      "id": "ebay-023501114",
      "title": "Premium Toilet Golf Game-Practice Mini Golf in Any Restroom/Bathroom - Great Toilet Time - Dad Gifts, Funny Gifts for Dad, Funny White Elephant Gifts, Gag Gifts for Husband, Boyfriend, Men – Verified Seller",
      "url": "https://www.ebay.com/itm/toilet-golf-game-practice-mini-golf-in-any-restroom-bathroom?mkevt=1&mkcid=1&mkrid=711-53200-19255-0&campid=BESTGIFTS&customid=023501114",
      "image": "/assets/amazon-sitestripe/amzn-3K47stH.svg",
      "price": "$15.99",
      "category": "For Her"
    },
    {
      "id": "ebay-019400913",
      "title": "Small Pocket Knife Gift for Men, Keychain Box Cutter with 1.34inch Blade, Mini Folding Knives EDC Gadgets for Everyday Carry, Stocking Stuffers Gift for Adults Men Him – Gift-Ready Listing",
      "url": "https://www.ebay.com/itm/small-pocket-knife-gift-for-men-keychain-box-cutter-with-1-3?mkevt=1&mkcid=1&mkrid=711-53200-19255-0&campid=BESTGIFTS&customid=019400913",
      "image": "/assets/amazon-sitestripe/amzn-3It90Np.svg",
      "price": "$7.98",
      "category": "Family Time"
    },
    {
      "id": "ebay-015200711",
      "title": "Smart Bangp Baseball Ice Cube Molds,Novelty Baseball Gifts Ball Ice Maker Mold,2.2\" Large Sphere Round Ice Cube Mold,Fun Shapes Large Whiskey Ice Cube Tray for Cocktails,Bourbon – Fan-Favorite Upgrade",
      "url": "https://www.ebay.com/itm/bangp-baseball-ice-cube-molds-novelty-baseball-gifts-ball-ic?mkevt=1&mkcid=1&mkrid=711-53200-19255-0&campid=BESTGIFTS&customid=015200711",
      "image": "/assets/amazon-sitestripe/amzn-3Ir56Vd.svg",
      "price": "$11.97",
      "category": "Wellness Warriors"
    },
    {
      "id": "ebay-017200811",
      "title": "Smart Nostalgia 2 Slot Hot Dog and Bun Toaster with Mini Tongs, Retro Toaster, Cooker that Works Chicken, Turkey, Veggie Links, Sausages Brats, Metallic Red – Small Business Highlight",
      "url": "https://www.ebay.com/itm/nostalgia-2-slot-hot-dog-and-bun-toaster-with-mini-tongs-ret?mkevt=1&mkcid=1&mkrid=711-53200-19255-0&campid=BESTGIFTS&customid=017200811",
      "image": "/assets/amazon-sitestripe/amzn-3Ir5rHt.svg",
      "price": "$32.99",
      "category": "Productivity Power-Ups"
    },
    {
      "id": "ebay-023201111",
      "title": "Smart Toilet Golf Game-Practice Mini Golf in Any Restroom/Bathroom - Great Toilet Time - Dad Gifts, Funny Gifts for Dad, Funny White Elephant Gifts, Gag Gifts for Husband, Boyfriend, Men – Gift-Ready Listing",
      "url": "https://www.ebay.com/itm/toilet-golf-game-practice-mini-golf-in-any-restroom-bathroom?mkevt=1&mkcid=1&mkrid=711-53200-19255-0&campid=BESTGIFTS&customid=023201111",
      "image": "/assets/amazon-sitestripe/amzn-3K47stH.svg",
      "price": "$15.99",
      "category": "For Her"
    },
    {
      "id": "ebay-025601215",
      "title": "Sustainable LcFun Waterproof Electric Dual Arc Lighter USB Rechargeable Outdoor Windproof Flameless Plasma Lighters for Camping, Hiking, Adventure, Survival Tactical Gear Stocking Stuffers Gifts for Men – Holiday Hero",
      "url": "https://www.ebay.com/itm/lcfun-waterproof-electric-dual-arc-lighter-usb-rechargeable-?mkevt=1&mkcid=1&mkrid=711-53200-19255-0&campid=BESTGIFTS&customid=025601215",
      "image": "/assets/amazon-sitestripe/amzn-3K5sHeG.svg",
      "price": "$8.09",
      "category": "For a Techy"
    },
    {
      "id": "ebay-023601115",
      "title": "Sustainable Toilet Golf Game-Practice Mini Golf in Any Restroom/Bathroom - Great Toilet Time - Dad Gifts, Funny Gifts for Dad, Funny White Elephant Gifts, Gag Gifts for Husband, Boyfriend, Men – Bestseller Spotlight",
      "url": "https://www.ebay.com/itm/toilet-golf-game-practice-mini-golf-in-any-restroom-bathroom?mkevt=1&mkcid=1&mkrid=711-53200-19255-0&campid=BESTGIFTS&customid=023601115",
      "image": "/assets/amazon-sitestripe/amzn-3K47stH.svg",
      "price": "$15.99",
      "category": "For Her"
    },
    {
      "id": "ebay-026301302",
      "title": "Trending Doctor Pepper Candle - Smells Like The Real Soda - Cute Candles for Cool Gifts - Funny Candles for Any Occasion - Cute Things for Aesthetic Room Decor - Cool Candle for Cool Things – Verified Seller",
      "url": "https://www.ebay.com/itm/doctor-pepper-candle-smells-like-the-real-soda-cute-candles-?mkevt=1&mkcid=1&mkrid=711-53200-19255-0&campid=BESTGIFTS&customid=026301302",
      "image": "/assets/amazon-sitestripe/amzn-3K6IhXl.svg",
      "price": "$24.99",
      "category": "For Gamers"
    }
  ]
}
