{
  "page": 8,
  "pageSize": 18,
  "totalPages": 23,
  "totalItems": 400,
  "items": [
    {
      "id": "ebay-014900708",
      "title": "Highly Rated Bangp Baseball Ice Cube Molds,Novelty Baseball Gifts Ball Ice Maker Mold,2.2\" Large Sphere Round Ice Cube Mold,Fun Shapes Large Whiskey Ice Cube Tray for Cocktails,Bourbon – Verified Seller",
      "url": "https://www.ebay.com/itm/bangp-baseball-ice-cube-molds-novelty-baseball-gifts-ball-ic?mkevt=1&mkcid=1&mkrid=711-53200-19255-0&campid=BESTGIFTS&customid=014900708",
      "image": "/assets/amazon-sitestripe/amzn-3Ir56Vd.svg",
      "price": "$11.97",
      "category": "Wellness Warriors"
    },
    {
      "id": "ebay-028901408",
      "title": "Highly Rated Funny Star Trophy with Humorous Your Did It Inscription - Funny Graduation Gift Gifts for Coworkers Cute Desk Decor Birthday Gift Encouragement Gift Funny Gag Gifts – Gift-Ready Listing",
      "url": "https://www.ebay.com/itm/funny-star-trophy-with-humorous-your-did-it-inscription-funn?mkevt=1&mkcid=1&mkrid=711-53200-19255-0&campid=BESTGIFTS&customid=028901408",
      "image": "/assets/amazon-sitestripe/amzn-3K7ykJh.svg",
      "price": "$9.99",
      "category": "For Fandom"
    },
    {
      "id": "ebay-004900208",
      "title": "Highly Rated SFOUR Astronaut Galaxy Projector Night Light，Lights for Bedroom,Kids Room Decor Aesthetic, Adjustable Head Angle,Gift for Kids Adults Home Party Ceiling Decor，Christmas Gift – eBay Exclusive",
      "url": "https://www.ebay.com/itm/sfour-astronaut-galaxy-projector-night-light-lights-for-bedr?mkevt=1&mkcid=1&mkrid=711-53200-19255-0&campid=BESTGIFTS&customid=004900208",
      "image": "/assets/amazon-sitestripe/amzn-3IbS6Tr.svg",
      "price": "$39.99",
      "category": "For a Techy"
    },
    {
      "id": "ebay-011900518",
      "title": "Inspired Gift Not Included Batteries Gag Gift - Funny Prank for Present Adults for Women Men - Stocking Stuffer for Him Her Boyfriend Girlfriend – Fast Shipping Pick",
      "url": "https://www.ebay.com/itm/gift-not-included-batteries-gag-gift-funny-prank-for-present?mkevt=1&mkcid=1&mkrid=711-53200-19255-0&campid=BESTGIFTS&customid=011900518",
      "image": "/assets/amazon-sitestripe/amzn-3IgMUxG.svg",
      "price": "$4.95",
      "category": "Homebody Upgrades"
    },
    {
      "id": "ebay-013900618",
      "title": "Inspired LEGO Botanicals Tiny Plants - Artificial, Fake Indoor Plant Building Set for Home, Kitchen, Desk Decoration, Adults Ages 18+ - Gift for Birthdays - 10329 – Money-Back Guarantee",
      "url": "https://www.ebay.com/itm/lego-botanicals-tiny-plants-artificial-fake-indoor-plant-bui?mkevt=1&mkcid=1&mkrid=711-53200-19255-0&campid=BESTGIFTS&customid=013900618",
      "image": "/assets/amazon-sitestripe/amzn-3IoJ99k.svg",
      "price": "$39.95",
      "category": "For Adventurers"
    },
    {
      "id": "ebay-003900118",
      "title": "Inspired Prank-O Original Gift Box, Wrap Your Real Present in a Funny Authentic Prank-O Gag Present Box, Novelty Gifting for Pranksters, Shark Tank (Roto Wipe) – Small Business Highlight",
      "url": "https://www.ebay.com/itm/prank-o-original-gift-box-wrap-your-real-present-in-a-funny-?mkevt=1&mkcid=1&mkrid=711-53200-19255-0&campid=BESTGIFTS&customid=003900118",
      "image": "/assets/amazon-sitestripe/amzn-3I2aKND.svg",
      "price": "$9.99",
      "category": "For Her"
    },
    {
      "id": "ebay-001900018",
      "title": "Inspired Rolling Grill Basket, Removable Wooden Handle, 304 Stainless Steel, Nesting Grilling Tools, Smoker BBQ Accessories for Vegetable, Outdoor Cooking Camping, Birthday Gifts for Men Dad Husband – Fan-Favorite Upgrade",
      "url": "https://www.ebay.com/itm/rolling-grill-basket-removable-wooden-handle-304-stainless-s?mkevt=1&mkcid=1&mkrid=711-53200-19255-0&campid=BESTGIFTS&customid=001900018",
      "image": "/assets/amazon-sitestripe/amzn-3I1wmJZ.svg",
      "price": "$23.99",
      "category": "For Him"
    },
    {
      "id": "ebay-008200401",
      "title": "Limited Edition 11Pcs Funny Adult Ballpoint Pen Set, Premium Days of The Week Swear Cuss Word Pens for Office Gifts, Novelty Pens for Corworkers – Verified Seller",
      "url": "https://www.ebay.com/itm/11pcs-funny-adult-ballpoint-pen-set-premium-days-of-the-week?mkevt=1&mkcid=1&mkrid=711-53200-19255-0&campid=BESTGIFTS&customid=008200401",
      "image": "/assets/amazon-sitestripe/amzn-3Ig0AsI.svg",
      "price": "$6.99",
      "category": "For Fandom"
    },
    {
      "id": "ebay-006200301",
      "title": "Limited Edition Funny Shart Survival Kit by Witty Yeti. Ultimate Poop Prank Gag Gift Set Contains Wet Wipes, Disposable Underwear, Tissues and Hilarious Badge. Novelty Fart Potty Pack Great for Friends or Family – Money-Back Guarantee",
      "url": "https://www.ebay.com/itm/funny-shart-survival-kit-by-witty-yeti-ultimate-poop-prank-g?mkevt=1&mkcid=1&mkrid=711-53200-19255-0&campid=BESTGIFTS&customid=006200301",
      "image": "/assets/amazon-sitestripe/amzn-3IbSKjP.svg",
      "price": "$37.99",
      "category": "For Gamers"
    },
    {
      "id": "ebay-002200101",
      "title": "Limited Edition Prank-O Original Gift Box, Wrap Your Real Present in a Funny Authentic Prank-O Gag Present Box, Novelty Gifting for Pranksters, Shark Tank (Roto Wipe) – Gift-Ready Listing",
      "url": "https://www.ebay.com/itm/prank-o-original-gift-box-wrap-your-real-present-in-a-funny-?mkevt=1&mkcid=1&mkrid=711-53200-19255-0&campid=BESTGIFTS&customid=002200101",
      "image": "/assets/amazon-sitestripe/amzn-3I2aKND.svg",
      "price": "$9.99",
      "category": "For Her"
    },
    {
      "id": "ebay-020201001",
      "title": "Limited Edition YATSKIA Chakra Crystal Tree - Handmade Healing Crystal Trees with 7 Chakra Stones - Decorative Tree of Life for Meditation, Feng Shui, and Home Decor - Unique Birthday Gifts for Women – Rare Marketplace Find",
      "url": "https://www.ebay.com/itm/yatskia-chakra-crystal-tree-handmade-healing-crystal-trees-w?mkevt=1&mkcid=1&mkrid=711-53200-19255-0&campid=BESTGIFTS&customid=020201001",
      "image": "/assets/amazon-sitestripe/amzn-3K3A32p.svg",
      "price": "$23.99",
      "category": "For Him"
    },
    {
      "id": "ebay-029301412",
      "title": "Next-Level Funny Star Trophy with Humorous Your Did It Inscription - Funny Graduation Gift Gifts for Coworkers Cute Desk Decor Birthday Gift Encouragement Gift Funny Gag Gifts – Bestseller Spotlight",
      "url": "https://www.ebay.com/itm/funny-star-trophy-with-humorous-your-did-it-inscription-funn?mkevt=1&mkcid=1&mkrid=711-53200-19255-0&campid=BESTGIFTS&customid=029301412",
      "image": "/assets/amazon-sitestripe/amzn-3K7ykJh.svg",
      "price": "$9.99",
      "category": "For Fandom"
    },
    {
      "id": "ebay-011300512",
      "title": "Next-Level Gift Not Included Batteries Gag Gift - Funny Prank for Present Adults for Women Men - Stocking Stuffer for Him Her Boyfriend Girlfriend – Holiday Hero",
      "url": "https://www.ebay.com/itm/gift-not-included-batteries-gag-gift-funny-prank-for-present?mkevt=1&mkcid=1&mkrid=711-53200-19255-0&campid=BESTGIFTS&customid=011300512",
      "image": "/assets/amazon-sitestripe/amzn-3IgMUxG.svg",
      "price": "$4.95",
      "category": "Homebody Upgrades"
    },
    {
      "id": "ebay-002600105",
      "title": "Prank-O Original Gift Box, Wrap Your Real Present in a Funny Authentic Prank-O Gag Present Box, Novelty Gifting for Pranksters, Shark Tank (Roto Wipe) – Bestseller Spotlight",
      "url": "https://www.ebay.com/itm/prank-o-original-gift-box-wrap-your-real-present-in-a-funny-?mkevt=1&mkcid=1&mkrid=711-53200-19255-0&campid=BESTGIFTS&customid=002600105",
      "image": "/assets/amazon-sitestripe/amzn-3I2aKND.svg",
      "price": "$9.99",
      "category": "For Her"
    },
    {
      "id": "ebay-021501014",
      "title": "Premium YATSKIA Chakra Crystal Tree - Handmade Healing Crystal Trees with 7 Chakra Stones - Decorative Tree of Life for Meditation, Feng Shui, and Home Decor - Unique Birthday Gifts for Women – Money-Back Guarantee",
      "url": "https://www.ebay.com/itm/yatskia-chakra-crystal-tree-handmade-healing-crystal-trees-w?mkevt=1&mkcid=1&mkrid=711-53200-19255-0&campid=BESTGIFTS&customid=021501014",
      "image": "/assets/amazon-sitestripe/amzn-3K3A32p.svg",
      "price": "$23.99",
      "category": "For Him"
    },
    {
      "id": "ebay-025201211",
      "title": "Smart LcFun Waterproof Electric Dual Arc Lighter USB Rechargeable Outdoor Windproof Flameless Plasma Lighters for Camping, Hiking, Adventure, Survival Tactical Gear Stocking Stuffers Gifts for Men – Fast Shipping Pick",
      "url": "https://www.ebay.com/itm/lcfun-waterproof-electric-dual-arc-lighter-usb-rechargeable-?mkevt=1&mkcid=1&mkrid=711-53200-19255-0&campid=BESTGIFTS&customid=025201211",
      "image": "/assets/amazon-sitestripe/amzn-3K5sHeG.svg",
      "price": "$8.09",
      "category": "For a Techy"
    },
    {
      "id": "ebay-037201811",
      "title": "Smart Ridley’s 100 Single Cheesy Joke Cards – Includes 100 Jokes for Kids and Adults, Funny Jokes for Family-Friendly Fun – Makes a Great Gift Idea – Small Business Highlight",
      "url": "https://www.ebay.com/itm/ridley-s-100-single-cheesy-joke-cards-includes-100-jokes-for?mkevt=1&mkcid=1&mkrid=711-53200-19255-0&campid=BESTGIFTS&customid=037201811",
      "image": "/assets/amazon-sitestripe/amzn-3VPEmRo.svg",
      "price": "$8.00",
      "category": "Productivity Power-Ups"
    },
    {
      "id": "ebay-005200211",
      "title": "Smart SFOUR Astronaut Galaxy Projector Night Light，Lights for Bedroom,Kids Room Decor Aesthetic, Adjustable Head Angle,Gift for Kids Adults Home Party Ceiling Decor，Christmas Gift – Fast Shipping Pick",
      "url": "https://www.ebay.com/itm/sfour-astronaut-galaxy-projector-night-light-lights-for-bedr?mkevt=1&mkcid=1&mkrid=711-53200-19255-0&campid=BESTGIFTS&customid=005200211",
      "image": "/assets/amazon-sitestripe/amzn-3IbS6Tr.svg",
      "price": "$39.99",
      "category": "For a Techy"
    }
  ]
}
