{
  "page": 21,
  "pageSize": 18,
  "totalPages": 23,
  "totalItems": 400,
  "items": [
    {
      "id": "ebay-017800817",
      "title": "Adventure Nostalgia 2 Slot Hot Dog and Bun Toaster with Mini Tongs, Retro Toaster, Cooker that Works Chicken, Turkey, Veggie Links, Sausages Brats, Metallic Red – Verified Seller",
      "url": "https://www.ebay.com/itm/nostalgia-2-slot-hot-dog-and-bun-toaster-with-mini-tongs-ret?mkevt=1&mkcid=1&mkrid=711-53200-19255-0&campid=BESTGIFTS&customid=017800817",
      "image": "/assets/amazon-sitestripe/amzn-3Ir5rHt.svg",
      "price": "$32.99",
      "category": "Productivity Power-Ups"
    },
    {
      "id": "ebay-016700806",
      "title": "Boutique Nostalgia 2 Slot Hot Dog and Bun Toaster with Mini Tongs, Retro Toaster, Cooker that Works Chicken, Turkey, Veggie Links, Sausages Brats, Metallic Red – Money-Back Guarantee",
      "url": "https://www.ebay.com/itm/nostalgia-2-slot-hot-dog-and-bun-toaster-with-mini-tongs-ret?mkevt=1&mkcid=1&mkrid=711-53200-19255-0&campid=BESTGIFTS&customid=016700806",
      "image": "/assets/amazon-sitestripe/amzn-3Ir5rHt.svg",
      "price": "$32.99",
      "category": "Productivity Power-Ups"
    },
    {
      "id": "ebay-018000819",
      "title": "Collector's Nostalgia 2 Slot Hot Dog and Bun Toaster with Mini Tongs, Retro Toaster, Cooker that Works Chicken, Turkey, Veggie Links, Sausages Brats, Metallic Red – Holiday Hero",
      "url": "https://www.ebay.com/itm/nostalgia-2-slot-hot-dog-and-bun-toaster-with-mini-tongs-ret?mkevt=1&mkcid=1&mkrid=711-53200-19255-0&campid=BESTGIFTS&customid=018000819",
      "image": "/assets/amazon-sitestripe/amzn-3Ir5rHt.svg",
      "price": "$32.99",
      "category": "Productivity Power-Ups"
    },
    {
      "id": "ebay-040001919",
      "title": "Collector's Schylling NeeDoh Original - Sensory Fidget Toy - Assorted Colors - Ages 3 to Adult , 1 Count ( Pack of 1) – Fan-Favorite Upgrade",
      "url": "https://www.ebay.com/itm/schylling-needoh-original-sensory-fidget-toy-assorted-colors?mkevt=1&mkcid=1&mkrid=711-53200-19255-0&campid=BESTGIFTS&customid=040001919",
      "image": "/assets/amazon-sitestripe/amzn-3VQCjfR.svg",
      "price": "$3.99",
      "category": "Family Time"
    },
    {
      "id": "ebay-020000919",
      "title": "Collector's Small Pocket Knife Gift for Men, Keychain Box Cutter with 1.34inch Blade, Mini Folding Knives EDC Gadgets for Everyday Carry, Stocking Stuffers Gift for Adults Men Him – Fan-Favorite Upgrade",
      "url": "https://www.ebay.com/itm/small-pocket-knife-gift-for-men-keychain-box-cutter-with-1-3?mkevt=1&mkcid=1&mkrid=711-53200-19255-0&campid=BESTGIFTS&customid=020000919",
      "image": "/assets/amazon-sitestripe/amzn-3It90Np.svg",
      "price": "$7.98",
      "category": "Family Time"
    },
    {
      "id": "ebay-033701616",
      "title": "Cozy Chia Pet Hedgehog with Seed Pack, Decorative Pottery Planter, Easy to Do and Fun to Grow, Novelty Gift, Perfect for Any Occasion, Terra Cotta – Gift-Ready Listing",
      "url": "https://www.ebay.com/itm/chia-pet-hedgehog-with-seed-pack-decorative-pottery-planter-?mkevt=1&mkcid=1&mkrid=711-53200-19255-0&campid=BESTGIFTS&customid=033701616",
      "image": "/assets/amazon-sitestripe/amzn-3KaaegW.svg",
      "price": "$24.99",
      "category": "For Adventurers"
    },
    {
      "id": "ebay-039701916",
      "title": "Cozy Schylling NeeDoh Original - Sensory Fidget Toy - Assorted Colors - Ages 3 to Adult , 1 Count ( Pack of 1) – Verified Seller",
      "url": "https://www.ebay.com/itm/schylling-needoh-original-sensory-fidget-toy-assorted-colors?mkevt=1&mkcid=1&mkrid=711-53200-19255-0&campid=BESTGIFTS&customid=039701916",
      "image": "/assets/amazon-sitestripe/amzn-3VQCjfR.svg",
      "price": "$3.99",
      "category": "Family Time"
    },
    {
      "id": "ebay-017000809",
      "title": "Cult-Favorite Nostalgia 2 Slot Hot Dog and Bun Toaster with Mini Tongs, Retro Toaster, Cooker that Works Chicken, Turkey, Veggie Links, Sausages Brats, Metallic Red – Holiday Hero",
      "url": "https://www.ebay.com/itm/nostalgia-2-slot-hot-dog-and-bun-toaster-with-mini-tongs-ret?mkevt=1&mkcid=1&mkrid=711-53200-19255-0&campid=BESTGIFTS&customid=017000809",
      "image": "/assets/amazon-sitestripe/amzn-3Ir5rHt.svg",
      "price": "$32.99",
      "category": "Productivity Power-Ups"
    },
    {
      "id": "ebay-016100800",
      "title": "Curated Nostalgia 2 Slot Hot Dog and Bun Toaster with Mini Tongs, Retro Toaster, Cooker that Works Chicken, Turkey, Veggie Links, Sausages Brats, Metallic Red – Fan-Favorite Upgrade",
      "url": "https://www.ebay.com/itm/nostalgia-2-slot-hot-dog-and-bun-toaster-with-mini-tongs-ret?mkevt=1&mkcid=1&mkrid=711-53200-19255-0&campid=BESTGIFTS&customid=016100800",
      "image": "/assets/amazon-sitestripe/amzn-3Ir5rHt.svg",
      "price": "$32.99",
      "category": "Productivity Power-Ups"
    },
    {
      "id": "ebay-034401703",
      "title": "Editor's COLORLIFE Twister Hurricane Light- Novelty Nature Decor Gift for Boys Girls, Men, Women Mini Water Vortex Maker Mood Night Light Birthday Holiday Christmas – eBay Exclusive",
      "url": "https://www.ebay.com/itm/colorlife-twister-hurricane-light-novelty-nature-decor-gift-?mkevt=1&mkcid=1&mkrid=711-53200-19255-0&campid=BESTGIFTS&customid=034401703",
      "image": "/assets/amazon-sitestripe/amzn-3Kditc9.svg",
      "price": "$22.98",
      "category": "Wellness Warriors"
    },
    {
      "id": "ebay-035401713",
      "title": "Everyday COLORLIFE Twister Hurricane Light- Novelty Nature Decor Gift for Boys Girls, Men, Women Mini Water Vortex Maker Mood Night Light Birthday Holiday Christmas – eBay Exclusive",
      "url": "https://www.ebay.com/itm/colorlife-twister-hurricane-light-novelty-nature-decor-gift-?mkevt=1&mkcid=1&mkrid=711-53200-19255-0&campid=BESTGIFTS&customid=035401713",
      "image": "/assets/amazon-sitestripe/amzn-3Kditc9.svg",
      "price": "$22.98",
      "category": "Wellness Warriors"
    },
    {
      "id": "ebay-016600805",
      "title": "Gifting Nostalgia 2 Slot Hot Dog and Bun Toaster with Mini Tongs, Retro Toaster, Cooker that Works Chicken, Turkey, Veggie Links, Sausages Brats, Metallic Red – Fast Shipping Pick",
      "url": "https://www.ebay.com/itm/nostalgia-2-slot-hot-dog-and-bun-toaster-with-mini-tongs-ret?mkevt=1&mkcid=1&mkrid=711-53200-19255-0&campid=BESTGIFTS&customid=016600805",
      "image": "/assets/amazon-sitestripe/amzn-3Ir5rHt.svg",
      "price": "$32.99",
      "category": "Productivity Power-Ups"
    },
    {
      "id": "ebay-034901708",
      "title": "Highly Rated COLORLIFE Twister Hurricane Light- Novelty Nature Decor Gift for Boys Girls, Men, Women Mini Water Vortex Maker Mood Night Light Birthday Holiday Christmas – Verified Seller",
      "url": "https://www.ebay.com/itm/colorlife-twister-hurricane-light-novelty-nature-decor-gift-?mkevt=1&mkcid=1&mkrid=711-53200-19255-0&campid=BESTGIFTS&customid=034901708",
      "image": "/assets/amazon-sitestripe/amzn-3Kditc9.svg",
      "price": "$22.98",
      "category": "Wellness Warriors"
    },
    {
      "id": "ebay-035901718",
      "title": "Inspired COLORLIFE Twister Hurricane Light- Novelty Nature Decor Gift for Boys Girls, Men, Women Mini Water Vortex Maker Mood Night Light Birthday Holiday Christmas – Verified Seller",
      "url": "https://www.ebay.com/itm/colorlife-twister-hurricane-light-novelty-nature-decor-gift-?mkevt=1&mkcid=1&mkrid=711-53200-19255-0&campid=BESTGIFTS&customid=035901718",
      "image": "/assets/amazon-sitestripe/amzn-3Kditc9.svg",
      "price": "$22.98",
      "category": "Wellness Warriors"
    },
    {
      "id": "ebay-019300912",
      "title": "Next-Level Small Pocket Knife Gift for Men, Keychain Box Cutter with 1.34inch Blade, Mini Folding Knives EDC Gadgets for Everyday Carry, Stocking Stuffers Gift for Adults Men Him – Rare Marketplace Find",
      "url": "https://www.ebay.com/itm/small-pocket-knife-gift-for-men-keychain-box-cutter-with-1-3?mkevt=1&mkcid=1&mkrid=711-53200-19255-0&campid=BESTGIFTS&customid=019300912",
      "image": "/assets/amazon-sitestripe/amzn-3It90Np.svg",
      "price": "$7.98",
      "category": "Family Time"
    },
    {
      "id": "ebay-027501314",
      "title": "Premium Doctor Pepper Candle - Smells Like The Real Soda - Cute Candles for Cool Gifts - Funny Candles for Any Occasion - Cute Things for Aesthetic Room Decor - Cool Candle for Cool Things – Holiday Hero",
      "url": "https://www.ebay.com/itm/doctor-pepper-candle-smells-like-the-real-soda-cute-candles-?mkevt=1&mkcid=1&mkrid=711-53200-19255-0&campid=BESTGIFTS&customid=027501314",
      "image": "/assets/amazon-sitestripe/amzn-3K6IhXl.svg",
      "price": "$24.99",
      "category": "For Gamers"
    },
    {
      "id": "ebay-019500914",
      "title": "Premium Small Pocket Knife Gift for Men, Keychain Box Cutter with 1.34inch Blade, Mini Folding Knives EDC Gadgets for Everyday Carry, Stocking Stuffers Gift for Adults Men Him – Fast Shipping Pick",
      "url": "https://www.ebay.com/itm/small-pocket-knife-gift-for-men-keychain-box-cutter-with-1-3?mkevt=1&mkcid=1&mkrid=711-53200-19255-0&campid=BESTGIFTS&customid=019500914",
      "image": "/assets/amazon-sitestripe/amzn-3It90Np.svg",
      "price": "$7.98",
      "category": "Family Time"
    },
    {
      "id": "ebay-035601715",
      "title": "Sustainable COLORLIFE Twister Hurricane Light- Novelty Nature Decor Gift for Boys Girls, Men, Women Mini Water Vortex Maker Mood Night Light Birthday Holiday Christmas – Gift-Ready Listing",
      "url": "https://www.ebay.com/itm/colorlife-twister-hurricane-light-novelty-nature-decor-gift-?mkevt=1&mkcid=1&mkrid=711-53200-19255-0&campid=BESTGIFTS&customid=035601715",
      "image": "/assets/amazon-sitestripe/amzn-3Kditc9.svg",
      "price": "$22.98",
      "category": "Wellness Warriors"
    }
  ]
}
