{
  "page": 15,
  "pageSize": 18,
  "totalPages": 23,
  "totalItems": 400,
  "items": [
    {
      "id": "ebay-026801307",
      "title": "Handpicked Doctor Pepper Candle - Smells Like The Real Soda - Cute Candles for Cool Gifts - Funny Candles for Any Occasion - Cute Things for Aesthetic Room Decor - Cool Candle for Cool Things – eBay Exclusive",
      "url": "https://www.ebay.com/itm/doctor-pepper-candle-smells-like-the-real-soda-cute-candles-?mkevt=1&mkcid=1&mkrid=711-53200-19255-0&campid=BESTGIFTS&customid=026801307",
      "image": "/assets/amazon-sitestripe/amzn-3K6IhXl.svg",
      "price": "$24.99",
      "category": "For Gamers"
    },
    {
      "id": "ebay-000800007",
      "title": "Handpicked Rolling Grill Basket, Removable Wooden Handle, 304 Stainless Steel, Nesting Grilling Tools, Smoker BBQ Accessories for Vegetable, Outdoor Cooking Camping, Birthday Gifts for Men Dad Husband – Holiday Hero",
      "url": "https://www.ebay.com/itm/rolling-grill-basket-removable-wooden-handle-304-stainless-s?mkevt=1&mkcid=1&mkrid=711-53200-19255-0&campid=BESTGIFTS&customid=000800007",
      "image": "/assets/amazon-sitestripe/amzn-3I1wmJZ.svg",
      "price": "$23.99",
      "category": "For Him"
    },
    {
      "id": "ebay-020801007",
      "title": "Handpicked YATSKIA Chakra Crystal Tree - Handmade Healing Crystal Trees with 7 Chakra Stones - Decorative Tree of Life for Meditation, Feng Shui, and Home Decor - Unique Birthday Gifts for Women – Holiday Hero",
      "url": "https://www.ebay.com/itm/yatskia-chakra-crystal-tree-handmade-healing-crystal-trees-w?mkevt=1&mkcid=1&mkrid=711-53200-19255-0&campid=BESTGIFTS&customid=020801007",
      "image": "/assets/amazon-sitestripe/amzn-3K3A32p.svg",
      "price": "$23.99",
      "category": "For Him"
    },
    {
      "id": "ebay-036901808",
      "title": "Highly Rated Ridley’s 100 Single Cheesy Joke Cards – Includes 100 Jokes for Kids and Adults, Funny Jokes for Family-Friendly Fun – Makes a Great Gift Idea – Bestseller Spotlight",
      "url": "https://www.ebay.com/itm/ridley-s-100-single-cheesy-joke-cards-includes-100-jokes-for?mkevt=1&mkcid=1&mkrid=711-53200-19255-0&campid=BESTGIFTS&customid=036901808",
      "image": "/assets/amazon-sitestripe/amzn-3VPEmRo.svg",
      "price": "$8.00",
      "category": "Productivity Power-Ups"
    },
    {
      "id": "ebay-000900008",
      "title": "Highly Rated Rolling Grill Basket, Removable Wooden Handle, 304 Stainless Steel, Nesting Grilling Tools, Smoker BBQ Accessories for Vegetable, Outdoor Cooking Camping, Birthday Gifts for Men Dad Husband – Fan-Favorite Upgrade",
      "url": "https://www.ebay.com/itm/rolling-grill-basket-removable-wooden-handle-304-stainless-s?mkevt=1&mkcid=1&mkrid=711-53200-19255-0&campid=BESTGIFTS&customid=000900008",
      "image": "/assets/amazon-sitestripe/amzn-3I1wmJZ.svg",
      "price": "$23.99",
      "category": "For Him"
    },
    {
      "id": "ebay-020901008",
      "title": "Highly Rated YATSKIA Chakra Crystal Tree - Handmade Healing Crystal Trees with 7 Chakra Stones - Decorative Tree of Life for Meditation, Feng Shui, and Home Decor - Unique Birthday Gifts for Women – Fan-Favorite Upgrade",
      "url": "https://www.ebay.com/itm/yatskia-chakra-crystal-tree-handmade-healing-crystal-trees-w?mkevt=1&mkcid=1&mkrid=711-53200-19255-0&campid=BESTGIFTS&customid=020901008",
      "image": "/assets/amazon-sitestripe/amzn-3K3A32p.svg",
      "price": "$23.99",
      "category": "For Him"
    },
    {
      "id": "ebay-015900718",
      "title": "Inspired Bangp Baseball Ice Cube Molds,Novelty Baseball Gifts Ball Ice Maker Mold,2.2\" Large Sphere Round Ice Cube Mold,Fun Shapes Large Whiskey Ice Cube Tray for Cocktails,Bourbon – Verified Seller",
      "url": "https://www.ebay.com/itm/bangp-baseball-ice-cube-molds-novelty-baseball-gifts-ball-ic?mkevt=1&mkcid=1&mkrid=711-53200-19255-0&campid=BESTGIFTS&customid=015900718",
      "image": "/assets/amazon-sitestripe/amzn-3Ir56Vd.svg",
      "price": "$11.97",
      "category": "Wellness Warriors"
    },
    {
      "id": "ebay-017900818",
      "title": "Inspired Nostalgia 2 Slot Hot Dog and Bun Toaster with Mini Tongs, Retro Toaster, Cooker that Works Chicken, Turkey, Veggie Links, Sausages Brats, Metallic Red – Bestseller Spotlight",
      "url": "https://www.ebay.com/itm/nostalgia-2-slot-hot-dog-and-bun-toaster-with-mini-tongs-ret?mkevt=1&mkcid=1&mkrid=711-53200-19255-0&campid=BESTGIFTS&customid=017900818",
      "image": "/assets/amazon-sitestripe/amzn-3Ir5rHt.svg",
      "price": "$32.99",
      "category": "Productivity Power-Ups"
    },
    {
      "id": "ebay-005900218",
      "title": "Inspired SFOUR Astronaut Galaxy Projector Night Light，Lights for Bedroom,Kids Room Decor Aesthetic, Adjustable Head Angle,Gift for Kids Adults Home Party Ceiling Decor，Christmas Gift – eBay Exclusive",
      "url": "https://www.ebay.com/itm/sfour-astronaut-galaxy-projector-night-light-lights-for-bedr?mkevt=1&mkcid=1&mkrid=711-53200-19255-0&campid=BESTGIFTS&customid=005900218",
      "image": "/assets/amazon-sitestripe/amzn-3IbS6Tr.svg",
      "price": "$39.99",
      "category": "For a Techy"
    },
    {
      "id": "ebay-024201201",
      "title": "Limited Edition LcFun Waterproof Electric Dual Arc Lighter USB Rechargeable Outdoor Windproof Flameless Plasma Lighters for Camping, Hiking, Adventure, Survival Tactical Gear Stocking Stuffers Gifts for Men – Fast Shipping Pick",
      "url": "https://www.ebay.com/itm/lcfun-waterproof-electric-dual-arc-lighter-usb-rechargeable-?mkevt=1&mkcid=1&mkrid=711-53200-19255-0&campid=BESTGIFTS&customid=024201201",
      "image": "/assets/amazon-sitestripe/amzn-3K5sHeG.svg",
      "price": "$8.09",
      "category": "For a Techy"
    },
    {
      "id": "ebay-018200901",
      "title": "Limited Edition Small Pocket Knife Gift for Men, Keychain Box Cutter with 1.34inch Blade, Mini Folding Knives EDC Gadgets for Everyday Carry, Stocking Stuffers Gift for Adults Men Him – eBay Exclusive",
      "url": "https://www.ebay.com/itm/small-pocket-knife-gift-for-men-keychain-box-cutter-with-1-3?mkevt=1&mkcid=1&mkrid=711-53200-19255-0&campid=BESTGIFTS&customid=018200901",
      "image": "/assets/amazon-sitestripe/amzn-3It90Np.svg",
      "price": "$7.98",
      "category": "Family Time"
    },
    {
      "id": "ebay-022201101",
      "title": "Limited Edition Toilet Golf Game-Practice Mini Golf in Any Restroom/Bathroom - Great Toilet Time - Dad Gifts, Funny Gifts for Dad, Funny White Elephant Gifts, Gag Gifts for Husband, Boyfriend, Men – Gift-Ready Listing",
      "url": "https://www.ebay.com/itm/toilet-golf-game-practice-mini-golf-in-any-restroom-bathroom?mkevt=1&mkcid=1&mkrid=711-53200-19255-0&campid=BESTGIFTS&customid=022201101",
      "image": "/assets/amazon-sitestripe/amzn-3K47stH.svg",
      "price": "$15.99",
      "category": "For Her"
    },
    {
      "id": "ebay-027301312",
      "title": "Next-Level Doctor Pepper Candle - Smells Like The Real Soda - Cute Candles for Cool Gifts - Funny Candles for Any Occasion - Cute Things for Aesthetic Room Decor - Cool Candle for Cool Things – Verified Seller",
      "url": "https://www.ebay.com/itm/doctor-pepper-candle-smells-like-the-real-soda-cute-candles-?mkevt=1&mkcid=1&mkrid=711-53200-19255-0&campid=BESTGIFTS&customid=027301312",
      "image": "/assets/amazon-sitestripe/amzn-3K6IhXl.svg",
      "price": "$24.99",
      "category": "For Gamers"
    },
    {
      "id": "ebay-001300012",
      "title": "Next-Level Rolling Grill Basket, Removable Wooden Handle, 304 Stainless Steel, Nesting Grilling Tools, Smoker BBQ Accessories for Vegetable, Outdoor Cooking Camping, Birthday Gifts for Men Dad Husband – Gift-Ready Listing",
      "url": "https://www.ebay.com/itm/rolling-grill-basket-removable-wooden-handle-304-stainless-s?mkevt=1&mkcid=1&mkrid=711-53200-19255-0&campid=BESTGIFTS&customid=001300012",
      "image": "/assets/amazon-sitestripe/amzn-3I1wmJZ.svg",
      "price": "$23.99",
      "category": "For Him"
    },
    {
      "id": "ebay-037501814",
      "title": "Premium Ridley’s 100 Single Cheesy Joke Cards – Includes 100 Jokes for Kids and Adults, Funny Jokes for Family-Friendly Fun – Makes a Great Gift Idea – Gift-Ready Listing",
      "url": "https://www.ebay.com/itm/ridley-s-100-single-cheesy-joke-cards-includes-100-jokes-for?mkevt=1&mkcid=1&mkrid=711-53200-19255-0&campid=BESTGIFTS&customid=037501814",
      "image": "/assets/amazon-sitestripe/amzn-3VPEmRo.svg",
      "price": "$8.00",
      "category": "Productivity Power-Ups"
    },
    {
      "id": "ebay-037601815",
      "title": "Sustainable Ridley’s 100 Single Cheesy Joke Cards – Includes 100 Jokes for Kids and Adults, Funny Jokes for Family-Friendly Fun – Makes a Great Gift Idea – Fast Shipping Pick",
      "url": "https://www.ebay.com/itm/ridley-s-100-single-cheesy-joke-cards-includes-100-jokes-for?mkevt=1&mkcid=1&mkrid=711-53200-19255-0&campid=BESTGIFTS&customid=037601815",
      "image": "/assets/amazon-sitestripe/amzn-3VPEmRo.svg",
      "price": "$8.00",
      "category": "Productivity Power-Ups"
    },
    {
      "id": "ebay-005600215",
      "title": "Sustainable SFOUR Astronaut Galaxy Projector Night Light，Lights for Bedroom,Kids Room Decor Aesthetic, Adjustable Head Angle,Gift for Kids Adults Home Party Ceiling Decor，Christmas Gift – Holiday Hero",
      "url": "https://www.ebay.com/itm/sfour-astronaut-galaxy-projector-night-light-lights-for-bedr?mkevt=1&mkcid=1&mkrid=711-53200-19255-0&campid=BESTGIFTS&customid=005600215",
      "image": "/assets/amazon-sitestripe/amzn-3IbS6Tr.svg",
      "price": "$39.99",
      "category": "For a Techy"
    },
    {
      "id": "ebay-021601015",
      "title": "Sustainable YATSKIA Chakra Crystal Tree - Handmade Healing Crystal Trees with 7 Chakra Stones - Decorative Tree of Life for Meditation, Feng Shui, and Home Decor - Unique Birthday Gifts for Women – Verified Seller",
      "url": "https://www.ebay.com/itm/yatskia-chakra-crystal-tree-handmade-healing-crystal-trees-w?mkevt=1&mkcid=1&mkrid=711-53200-19255-0&campid=BESTGIFTS&customid=021601015",
      "image": "/assets/amazon-sitestripe/amzn-3K3A32p.svg",
      "price": "$23.99",
      "category": "For Him"
    }
  ]
}
